%YAML 1.1
%TAG !u! tag:unity3d.com,2011:
--- !u!114 &11400000
MonoBehaviour:
  m_ObjectHideFlags: 0
  m_PrefabParentObject: {fileID: 0}
  m_PrefabInternal: {fileID: 0}
  m_GameObject: {fileID: 0}
  m_Enabled: 1
  m_EditorHideFlags: 0
  m_Script: {fileID: -395462249, guid: 89f0137620f6af44b9ba852b4190e64e, type: 3}
  m_Name: TMP Settings
  m_EditorClassIdentifier: 
  m_enableWordWrapping: 1
  m_enableKerning: 1
  m_enableExtraPadding: 0
  m_enableTintAllSprites: 0
  m_enableParseEscapeCharacters: 1
  m_missingGlyphCharacter: 0
  m_warningsDisabled: 0
  m_defaultFontAsset: {fileID: 11400000, guid: 852f40a2eba60644b986f8256af0d42d, type: 2}
  m_defaultFontAssetPath: Fonts & Materials/
  m_defaultFontSize: 36
  m_defaultAutoSizeMinRatio: 0.5
  m_defaultAutoSizeMaxRatio: 2
  m_defaultTextMeshProTextContainerSize: {x: 20, y: 5}
  m_defaultTextMeshProUITextContainerSize: {x: 200, y: 50}
  m_autoSizeTextContainer: 0
  m_fallbackFontAssets: []
  m_matchMaterialPreset: 1
  m_defaultSpriteAsset: {fileID: 11400000, guid: 9a952e2781ef26940ae089f1053ef4ef,
    type: 2}
  m_defaultSpriteAssetPath: Sprite Assets/
  m_defaultColorGradientPresetsPath: Color Gradient Presets/
  m_enableEmojiSupport: 1
  m_defaultStyleSheet: {fileID: 11400000, guid: 54d1085f9a2fdea4587fcfc7dddcd4bc,
    type: 2}
  m_leadingCharacters: {fileID: 4900000, guid: 8d713940fcbede142ae4a33ea0062b33, type: 3}
  m_followingCharacters: {fileID: 4900000, guid: 312ba5b9e90627940866e19549a788cf,
    type: 3}
